…
## select() Function - select certain data
```R
> penguins %>%
+   select(-species)
# A tibble: 344 × 7
   island  bill_length_mm bill_depth_mm flipper_length_… body_mass_g sex    year
   <fct>            <dbl>         <dbl>            <int>       <int> <fct> <int>
 1 Torger…           39.1          18.7              181        3750 male   2007
 2 Torger…           39.5          17.4              186        3800 fema…  2007
 3 Torger…           40.3          18                195        3250 fema…  2007
 4 Torger…           NA            NA                 NA          NA NA     2007
 5 Torger…           36.7          19.3              193        3450 fema…  2007
 6 Torger…           39.3          20.6              190        3650 male   2007
 7 Torger…           38.9          17.8              181        3625 fema…  2007
 8 Torger…           39.2          19.6              195        4675 male   2007
 9 Torger…           34.1          18.1              193        3475 NA     2007
10 Torger…           42            20.2              190        4250 NA     2007
# … with 334 more rows
```
## rename() Function - rename column
```R
> penguins %>%
+   rename(island_new=island)
# A tibble: 344 × 8
   species island_new bill_length_mm bill_depth_mm flipper_length_mm body_mass_g
   <fct>   <fct>               <dbl>         <dbl>             <int>       <int>
 1 Adelie  Torgersen            39.1          18.7               181        3750
 2 Adelie  Torgersen            39.5          17.4               186        3800
 3 Adelie  Torgersen            40.3          18                 195        3250
 4 Adelie  Torgersen            NA            NA                  NA          NA
 5 Adelie  Torgersen            36.7          19.3               193        3450
 6 Adelie  Torgersen            39.3          20.6               190        3650
 7 Adelie  Torgersen            38.9          17.8               181        3625
 8 Adelie  Torgersen            39.2          19.6               195        4675
 9 Adelie  Torgersen            34.1          18.1               193        3475
10 Adelie  Torgersen            42            20.2               190        4250
# … with 334 more rows, and 2 more variables: sex <fct>, year <int>
```

## rename_with() Function - change column to upper case or lower case
```R
> rename_with(penguins,toupper)
# A tibble: 344 × 8
   SPECIES ISLAND    BILL_LENGTH_MM BILL_DEPTH_MM FLIPPER_LENGTH_MM BODY_MASS_G
   <fct>   <fct>              <dbl>         <dbl>             <int>       <int>
 1 Adelie  Torgersen           39.1          18.7               181        3750
 2 Adelie  Torgersen           39.5          17.4               186        3800
 3 Adelie  Torgersen           40.3          18                 195        3250
 4 Adelie  Torgersen           NA            NA                  NA          NA
 5 Adelie  Torgersen           36.7          19.3               193        3450
 6 Adelie  Torgersen           39.3          20.6               190        3650
 7 Adelie  Torgersen           38.9          17.8               181        3625
 8 Adelie  Torgersen           39.2          19.6               195        4675
 9 Adelie  Torgersen           34.1          18.1               193        3475
10 Adelie  Torgersen           42            20.2               190        4250
# … with 334 more rows, and 2 more variables: SEX <fct>, YEAR <int>

> rename_with(penguins,tolower)
# A tibble: 344 × 8
   species island    bill_length_mm bill_depth_mm flipper_length_mm body_mass_g
   <fct>   <fct>              <dbl>         <dbl>             <int>       <int>
 1 Adelie  Torgersen           39.1          18.7               181        3750
 2 Adelie  Torgersen           39.5          17.4               186        3800
 3 Adelie  Torgersen           40.3          18                 195        3250
 4 Adelie  Torgersen           NA            NA                  NA          NA
 5 Adelie  Torgersen           36.7          19.3               193        3450
 6 Adelie  Torgersen           39.3          20.6               190        3650
 7 Adelie  Torgersen           38.9          17.8               181        3625
 8 Adelie  Torgersen           39.2          19.6               195        4675
 9 Adelie  Torgersen           34.1          18.1               193        3475
10 Adelie  Torgersen           42            20.2               190        4250
# … with 334 more rows, and 2 more variables: sex <fct>, year <int>
```
…
