…
## mutate() Function - change column name.
```R
> library(tidyverse)
── Attaching packages ────────────────────────────────────────────────────────────────────────────── tidyverse 1.3.1 ──
✓ tibble  3.1.6     ✓ purrr   0.3.4
✓ tidyr   1.2.0     ✓ stringr 1.4.0
✓ readr   2.1.2     ✓ forcats 0.5.1
── Conflicts ───────────────────────────────────────────────────────────────────────────────── tidyverse_conflicts() ──
x dplyr::filter() masks stats::filter()
x dbplyr::ident() masks dplyr::ident()
x dplyr::lag()    masks stats::lag()
x dbplyr::sql()   masks dplyr::sql()
> mutate(diamonds, carat_2=carat*100)
# A tibble: 53,940 × 11
   carat cut       color clarity depth table price     x     y     z carat_2
   <dbl> <ord>     <ord> <ord>   <dbl> <dbl> <int> <dbl> <dbl> <dbl>   <dbl>
 1  0.23 Ideal     E     SI2      61.5    55   326  3.95  3.98  2.43      23
 2  0.21 Premium   E     SI1      59.8    61   326  3.89  3.84  2.31      21
 3  0.23 Good      E     VS1      56.9    65   327  4.05  4.07  2.31      23
 4  0.29 Premium   I     VS2      62.4    58   334  4.2   4.23  2.63      29
 5  0.31 Good      J     SI2      63.3    58   335  4.34  4.35  2.75      31
 6  0.24 Very Good J     VVS2     62.8    57   336  3.94  3.96  2.48      24
 7  0.24 Very Good I     VVS1     62.3    57   336  3.95  3.98  2.47      24
 8  0.26 Very Good H     SI1      61.9    55   337  4.07  4.11  2.53      26
 9  0.22 Fair      E     VS2      65.1    61   337  3.87  3.78  2.49      22
10  0.23 Very Good H     VS1      59.4    61   338  4     4.05  2.39      23
# … with 53,930 more rows
```
